{
  "id": idHere,
  "category": {
    "id": 0,
    "name": "nameCategory"
  },
  "name": "doggie",
  "photoUrls": [
    "string"
  ],
  "tags": [
    {
      "id": 321321,
      "name": "tagName"
    }
  ],
  "status": "available"
}